{
  "type": "site_links",
  "links": [
    {
      "url": "http://www.anandtech.com/show/8526/nvidia-geforce-gtx-980-review/2",
      "description": "",
      "title": "Our deep dive on the Maxwell ..."
    },
    {
      "url": "http://www.anandtech.com/show/8526/nvidia-geforce-gtx-980-review/22",
      "description": "",
      "title": "Overclocking GTX 980"
    },
    {
      "url": "http://www.anandtech.com/show/8526/nvidia-geforce-gtx-980-review/20",
      "description": "",
      "title": "Compute"
    },
    {
      "url": "http://www.anandtech.com/show/8526/nvidia-geforce-gtx-980-review/13",
      "description": "",
      "title": "Battlefield 4"
    }
  ]
}
