{
  "above_the_fold": false,
  "amp": false,
  "bottom_right": "780,1668",
  "carousel": false,
  "description": "Remote. All jobs. Last 24 hours. Last 3 days. Last 7 days. Salary. All job categories. Technology. Architecture & Engineering. All skills. JavaScript. Java. All education levels. Bachelor's degree. Master's degree. All clearance types. Secret Clearance. TS/SCI. All jobs. Flexible schedule. Monday to Friday.",
  "markup": 1,
  "page_number": 1,
  "rich_snippets": [
    {
      "type": "breadcrumb",
      "path": "www.indeed.com › q-Software-Developer-jobs"
    }
  ],
  "title": "Software Developer Jobs, Employment | Indeed.com",
  "top_left": "180,1525",
  "type": "organic",
  "url": "https://www.indeed.com/q-Software-Developer-jobs.html",
  "visible": true
}
