{
  "above_the_fold": true,
  "bottom_right": "832,288",
  "description": "2012 film",
  "items": {
    "1": {
      "name": "IMDb",
      "review": "8.4/10",
      "url": "https://www.imdb.com/title/tt0001853728/",
      "visible": true
    },
    "2": {
      "name": "Rotten Tomatoes",
      "review": "87%",
      "url": "https://www.rottentomatoes.com/m/django_unchained_2012",
      "visible": true
    },
    "3": {
      "name": "Metacritic",
      "review": "81%",
      "url": "https://www.metacritic.com/movie/django-unchained",
      "visible": true
    }
  },
  "markup": 1,
  "page_number": 1,
  "reviews": {},
  "rich_snippets": [],
  "title": "Django Unchained, Reviews",
  "top_left": "180,172",
  "type": "review",
  "visible": true
}
